%YAML 1.1
%TAG !u! tag:unity3d.com,2011:
--- !u!114 &11400000
MonoBehaviour:
  m_ObjectHideFlags: 0
  m_CorrespondingSourceObject: {fileID: 0}
  m_PrefabInstance: {fileID: 0}
  m_PrefabAsset: {fileID: 0}
  m_GameObject: {fileID: 0}
  m_Enabled: 1
  m_EditorHideFlags: 0
  m_Script: {fileID: 11500000, guid: 73e54acbf51b6854eba6ab2539f4b5c8, type: 3}
  m_Name: Body
  m_EditorClassIdentifier: 
  name: Rogue_Torse_Blue
  icon: {fileID: 21300000, guid: 1d51038a89eeb464c8a2b03cd3e1d01b, type: 3}
  Cloth:
  - {fileID: 21300000, guid: fff248787aa9dc44d819b77a6686c0af, type: 3}
  - {fileID: 21300000, guid: 40e550cd3b539f14eb98d42b6769b592, type: 3}
  - {fileID: 21300000, guid: 7b78357522a34d64bb8775b962b0deb0, type: 3}
  - {fileID: 21300000, guid: 0c6412d95175c2b40bd9a27f7d1fa096, type: 3}
  price: 12
  itemType: 1
  isEquipped: 0
  Purchased: 0
