%YAML 1.1
%TAG !u! tag:unity3d.com,2011:
--- !u!114 &11400000
MonoBehaviour:
  m_ObjectHideFlags: 0
  m_CorrespondingSourceObject: {fileID: 0}
  m_PrefabInstance: {fileID: 0}
  m_PrefabAsset: {fileID: 0}
  m_GameObject: {fileID: 0}
  m_Enabled: 1
  m_EditorHideFlags: 0
  m_Script: {fileID: 11500000, guid: 73e54acbf51b6854eba6ab2539f4b5c8, type: 3}
  m_Name: 02LRogue_LLeg_Red
  m_EditorClassIdentifier: 
  name: LRogue_LLeg_Red
  icon: {fileID: 21300000, guid: c65e285e2bfa766428d07aef51d7757d, type: 3}
  Cloth:
  - {fileID: 21300000, guid: 2932647fff9189e40a62a25143f3f534, type: 3}
  - {fileID: 21300000, guid: d4a68b40fbf8e4046a2350c31a210fb1, type: 3}
  price: 20
  itemType: 2
  isEquipped: 1
  Purchased: 0
