%YAML 1.1
%TAG !u! tag:unity3d.com,2011:
--- !u!114 &11400000
MonoBehaviour:
  m_ObjectHideFlags: 0
  m_CorrespondingSourceObject: {fileID: 0}
  m_PrefabInstance: {fileID: 0}
  m_PrefabAsset: {fileID: 0}
  m_GameObject: {fileID: 0}
  m_Enabled: 1
  m_EditorHideFlags: 0
  m_Script: {fileID: 11500000, guid: 73e54acbf51b6854eba6ab2539f4b5c8, type: 3}
  m_Name: Rogue_Torse_Purple
  m_EditorClassIdentifier: 
  name: Rogue_Torse_Purple
  icon: {fileID: 21300000, guid: 62b4a2f3dff4a9a4ba03a764d5fdd006, type: 3}
  Cloth:
  - {fileID: 21300000, guid: 215dd6c48c732d744aecd29e7fecbbfa, type: 3}
  - {fileID: 21300000, guid: 0038d4b0669b99846b9be93321f9d7a4, type: 3}
  - {fileID: 21300000, guid: e374a8e2ee1ae6b4c938a59399b39ffb, type: 3}
  - {fileID: 21300000, guid: c376d5b80d02ffe4ba89fd03d60ec471, type: 3}
  price: 20
  itemType: 1
  isEquipped: 0
  Purchased: 0
